Sales
…
Quantitatively, the correlation between reviews and loves is significantly stronger compared to the relationships between reviews and ratings or ratings and loves. This suggests that products with higher reviews are not only engaging customers but are also more likely to be loved, making the combination of these metrics a holistic indicator of product performance.

correlations <- combined %>%
  group_by(secondary_category) %>%
  summarize(
    corr_reviews_rating = cor(reviews, rating, use = "complete.obs"),  
    corr_rating_loves = cor(rating, loves_count, use = "complete.obs"),
    corr_reviews_loves = cor(reviews, loves_count, use = "complete.obs"), 
    .groups = "drop"
  )

correlations

# A tibble: 41 × 4
   secondary_category   corr_reviews_rating corr_rating_loves corr_reviews_loves
   <chr>                              <dbl>             <dbl>              <dbl>
 1 Accessories                      -0.135            -0.147               0.966
 2 Bath & Body                      -0.0480           -0.0693              0.992
 3 Bath & Shower                    -0.714            -0.280               0.428
 4 Beauty Accessories                0.287             0.217               0.513
 5 Beauty Supplements                1                 1                   1    
 6 Beauty Tools                      0.668             0.460               0.792
 7 Body Care                         0.887             0.763               0.906
 8 Body Moisturizers                 0.641             0.207               0.218
 9 Brushes & Applicato…             -0.0786            0.673               0.109
10 Candles & Home Scen…              0.481             0.263               0.831
# ℹ 31 more rows
…
